{
    "type": "minecraft:crafting_shaped",
    "pattern": [
        "P P",
        "P P",
        " I "
    ],
    "key": {
        "P": {
            "tag": "minecraft:planks"
        },
        "I": {
            "item": "minecraft:iron_ingot"
        }
    },
    "result": {
        "item": "composableautomation:chute",
        "count": 4
    }
}
